/Users/imcsey/Environments/miro-cucumber-java/miro/src/test/java/miro/Hooks.java
/Users/imcsey/Environments/miro-cucumber-java/miro/src/test/java/miro/RunCucumberTest.java
/Users/imcsey/Environments/miro-cucumber-java/miro/src/test/java/miro/StepDefinitions.java
